Rutine for PH 628
…
# experimental
log_dt$influy2 <- dfbetas(log_age)[,4]*100
log_dt %>% filter(influy2>1)

## # A tibble: 167 x 13
##    infarto  tabaco alcohol `_est_m0` `_est_m1` `_est_mod1` `_est_mod2`
##    <dbl+l> <dbl+l> <dbl+l>     <dbl>     <dbl>       <dbl>       <dbl>
##  1 1 [Yes] 1 [Yes] 1 [Yes]         1         1           1           1
##  2 1 [Yes] 1 [Yes] 1 [Yes]         1         1           1           1
##  3 1 [Yes] 1 [Yes] 1 [Yes]         1         1           1           1
##  4 1 [Yes] 1 [Yes] 1 [Yes]         1         1           1           1
##  5 1 [Yes] 1 [Yes] 1 [Yes]         1         1           1           1
##  6 1 [Yes] 1 [Yes] 1 [Yes]         1         1           1           1
##  7 1 [Yes] 1 [Yes] 1 [Yes]         1         1           1           1
##  8 1 [Yes] 1 [Yes] 1 [Yes]         1         1           1           1
##  9 1 [Yes] 1 [Yes] 1 [Yes]         1         1           1           1
## 10 1 [Yes] 1 [Yes] 1 [Yes]         1         1           1           1
## #  with 157 more rows, and 6 more variables: p <dbl>,
## #   resid_std <dbl+lbl>, age <dbl>, p1 <dbl>, p2 <dbl>, influy2 <dbl>
…
